[
  [
    "store-homepage",
    {
      "type": "static-route",
      "path": "",
      "keep": true
    }
  ],
  [
    "store-settings",
    {
      "type": "static-route",
      "path": "#/settings"
    }
  ]
]
