{
  "totates": 1,
  "name": "@ruteni/webcam",
  "version": "1.0.0",
  "license": "EUPL-1.2",
  "module": "index.js",
  "elements": [
    "elements/webcam-homepage/index.json",
    "elements/webrtc-sink/index.json"
  ],
  "dependencies": {
    "@totates/blaze-css/v10": "^10.0.0",
    "@totates/logging/v1": "^1.0.0",
    "@totates/quotquot/v1": "^1.0.0",
    "@totates/trusted-types/v1": "^1.0.0",
    "@totates/translation/v1": "^1.0.0"
  }
}
